DEPTH = 16384;
WIDTH = 32;
ADDRESS_RADIX = HEX;
DATA_RADIX = HEX;
CONTENT
BEGIN
00000000 : 00000293;   % 6: 	li t0,0 %
00000001 : 0fc10417;   % 7: 	la s0,DADO %
00000002 : ffc40413;   % 7:  %
00000003 : 00042303;   % 8: 	lw t1,0(s0) %
00000004 : 00628663;   % 9: LOOP:	beq t0,t1,FIM %
00000005 : 00128293;   % 10: 	addi t0,t0,1 %
00000006 : ff9ff06f;   % 11: 	j LOOP %
00000007 : 958c92b7;   % 12: FIM:	li t0,0x958c96d5 %
00000008 : 6d528293;   % 12:  %
00000009 : 00700313;   % 13: 	li t1,0x7 %
0000000a : 0262f3b3;   % 14: 	remu t2,t0,t1 %
0000000b : 0262c2b3;   % 15: 	div t0,t0,t1 %
0000000c : 00442287;   % 16: 	flw ft5,4(s0) %
0000000d : 5802f2d3;   % 17: 	fsqrt.s ft5,ft5 %
0000000e : 0000006f;   % 18: fim:	j fim %
END;
